{
  "imports": {
    "hono": "jsr:@hono/hono@4.6.6",
    "hono/utils/types": "jsr:@hono/hono@4.6.6/utils/types",
    "hono/basic-auth": "jsr:@hono/hono@4.6.6/basic-auth",
    "hono/cors": "jsr:@hono/hono@4.6.6/cors",
    "hono/etag": "jsr:@hono/hono@4.6.6/etag",
    "hono/deno": "jsr:@hono/hono@4.6.6/deno",
    "@std/assert": "jsr:@std/assert@1.0.6"
  }
}
